{
  "data": {
    "allProducts": {
      "pageInfo": {
        "pageNumber": 2,
        "totalCount": 9,
        "totalPages": 3,
        "hasNext": false,
        "hasPrev": true,
        "nextPage": null,
        "prevPage": 1
      },
      "products": [
        {
          "id": "11",
          "productName": "black shirt",
          "price": 30.5,
          "description": "a black shirt",
          "category": {
            "id": "10",
            "categoryName": "Shirts"
          }
        },
        {
          "id": "12",
          "productName": "black pants",
          "price": 31.99,
          "description": "a black pair of pants",
          "category": {
            "id": "11",
            "categoryName": "Pants"
          }
        },
        {
          "id": "13",
          "productName": "green jacket",
          "price": 43.99,
          "description": "a green jacket",
          "category": {
            "id": "12",
            "categoryName": "Jackets"
          }
        }
      ]
    }
  }
}